9
1 3 2 8 5
2 3 7 9 3
3 4 1 2 6 4
4 1 5
5 1 2
6 1 4
7 0
8 1 9
9 1 8

/home/dheeraj/Downloads/FixedPoint/TrFun/new.cpp:

11
0 1 1 1
1 2 8 9 1
2 1 3 1
3 0 1
4 1 0 a1
5 1 2 b1
6 1 1 a2
7 1 3 b2
8 1 2 b0
9 3 4 10 5 z
10 2 6 7 z  
0 3
